{
    "copyright": {
        "prefix": "copyright",
        "body": [
            "Copyright (c), ${CURRENT_YEAR} Stanisław Wiśniewski <s.wisniewski1101@gmail.com>"
        ],
        "description": "Add copyright"
    },
    "filename": {
        "prefix": "filename",
        "body": [
                "@file ${TM_FILENAME}",
                "@author Stanisław Wiśniewski <s.wisniewski1101@gmail.com>"
        ],
        "description": "Add filename"
    }
}
